INDEX VERSION 1.130+C:\ambiente\WorkSpaces\EJB\.metadata\.plugins\org.eclipse.jdt.core
3357694752.index
2303982216.index
1762347671.index
3997941265.index
4195110370.index
3257364533.index
239920324.index
2622083887.index
1456521164.index
2218912568.index
368377224.index
127192496.index
1167386450.index
601070574.index
1243859974.index
3697393363.index
3589141341.index
3699787458.index
3163579239.index
1862199981.index
1575721756.index
939483082.index
1616427872.index
527711740.index
3618715267.index
1502285182.index
4180924678.index
3855110596.index
4005572152.index
2286363289.index
3304046785.index
398913321.index
3494733935.index
2358432377.index
2251911523.index
3503390409.index
803492537.index
4084306850.index
2018683935.index
2223086018.index
1055572541.index
3509752957.index
1575209170.index
279142902.index
1970446467.index
2355958713.index
308697703.index
2989037297.index
1836472827.index
4010404357.index
