<?xml version="1.0" encoding="UTF-8"?>
<session version="1.0">
<refactoring comment="Delete resource &apos;ejb-timerservice&apos;" deleteContents="true" description="Delete resource &apos;ejb-timerservice&apos;" element1="/ejb-timerservice" flags="7" id="org.eclipse.ltk.core.refactoring.delete.resources" resources="1" stamp="1508035866773"/>
</session>