<?xml version="1.0" encoding="UTF-8"?>
<session version="1.0">
<refactoring comment="Delete resource &apos;asdsdsda&apos;" deleteContents="false" description="Delete resource &apos;asdsdsda&apos;" element1="/asdsdsda" flags="7" id="org.eclipse.ltk.core.refactoring.delete.resources" resources="1" stamp="1492995712892"/>
</session>